{
  "MyCast_DataPipeline": {
    "Type": "Folder",
    "ControlmServer": "controlm",
    "ActiveRetentionPolicy": "CleanEndedOK",
    "SubApplication": "Forecast",
    "CreatedBy": "emuser",
    "Application": "MyCast",
    "When": {
      "WeekDays": [
        "NONE"
      ],
      "Months": [
        "NONE"
      ],
      "MonthDays": [
        "NONE"
      ]
    },
    "DataProcessing": {
      "Type": "Job:Command",
      "Application": "MyCast",
      "SubApplication": "Forecast",
      "Host": "ForecastApp",
      "RunAs" : "workbench",
      "Command": "sleep 30",
      "IfBase:Folder:CompletionStatus_0": {
        "Type": "If:CompletionStatus",
        "CompletionStatus": "OK",
        "Run_0": {
          "Type": "Action:Run",
          "Folder": "FCA_MyCast_Docker",
          "Job": "AI_K8S_Mycast*"
        }
      },
      "eventsToWaitFor": {
        "Type": "WaitForEvents",
        "Events": [
          {
            "Event": "SnowflakeLoadIntoDB-TO-DataProcessing"
          }
        ]
      },
      "eventsToDelete": {
        "Type": "DeleteEvents",
        "Events": [
          {
            "Event": "SnowflakeLoadIntoDB-TO-DataProcessing"
          }
        ]
      }
    },
    "SnowflakeLoadIntoDB": {
      "Type": "Job:Database:EmbeddedQuery",
      "Query": "truncate table \"DEMO_DB\".\"PUBLIC\".\"MYCASTCUSTOMERS\";\\n\\ncopy into \"DEMO_DB\".\"PUBLIC\".\"MYCASTCUSTOMERS\"\\n  from s3://fcasali/MyCast_CustomersTable.csv\\n  credentials=(aws_key_id='AKIAVVZZ2EN6UOJUELGQ' aws_secret_key='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')\\n  file_format = '\"DEMO_DB\".\"PUBLIC\".\"MYCSV\"';\\n\\nselect * from \"DEMO_DB\".\"PUBLIC\".\"MYCASTCUSTOMERS\";",
      "ConnectionProfile": "SNOWFLAKE",
      "SubApplication": "Forecast",
      "Application": "MyCast",
      "CreatedBy": "fcasali",
      "RunAs": "SNOWFLAKE",
      "Variables": [
        {
          "DB-DB_CONNECTIONPROFILETYPE": "Local"
        }
      ],
      "When": {
        "WeekDays": [
          "NONE"
        ],
        "MonthDays": [
          "ALL"
        ],
        "DaysRelation": "OR"
      },
      "eventsToAdd": {
        "Type": "AddEvents",
        "Events": [
          {
            "Event": "SnowflakeLoadIntoDB-TO-DataProcessing"
          }
        ]
      }
    }
  }
}